"","name","value","is_filter"
"1","Sampling: Deployment duration (min)","60",TRUE
"2","Sampling: Bait type","Pilchards",TRUE
"3","Sampling: Bait quantity (g)","800",FALSE
"4","Sampling: Bait consistency","Mushed",FALSE
"5","Sampling: Minimum separation distance of samples (m)","250",FALSE
"6","Sampling: Camera type","SONY HDR CX7 and CX12",FALSE
"7","Sampling: Camera configuration","Stereo",FALSE
"8","Sampling: Frame type","Steel",FALSE
"9","Annotation: Upload type","EventMeasure database output",TRUE
"10","Annotation: Annotation tool/software","EventMeasure and PhotoMeasure",FALSE
"11","Annotation: Taxa that have been ID'd","Fish only",FALSE
"12","Annotation: Lengths measured for","All fish",TRUE
"13","Annotation: Type of Length measure","Fork length",FALSE
