OpCode	PeriodIndex	Period	FilenameStart	FrameStart	TimeStart	FilenameEnd	FrameEnd	TimeEnd	HasEnd
H1_1_1_Northern_20100820	0	set	H1_1_1_20100820_1349.avi	4164	2.31564	H1_1_1_20100820_1349.avi	58556	32.56358	1
H1_1_2_Northern_20100820	0	set	H1_1_2_20100820_1355.avi	5419	3.01356	H1_1_2_20100820_1355.avi	60050	33.39441	1
H1_1_3_Northern_20100820	0	start	H1_1_3_20100820_1400.avi	3658	2.03425				0
H1_1_4_Northern_20100820	0	start	H1_1_4_20100820_1405.avi	3864	2.14881				0
H1_2_1_Northern_20100820	0	set	H1_2_1_20100820_1450.avi	3727	2.07262	H1_2_1_20100820_1450.avi	57738	32.10868	1
H1_2_2_Northern_20100820	0	set	H1_2_2_20100820_1456.avi	2838	1.57824	H1_2_2_20100820_1456.avi	56008	31.14661	1
H1_2_3_Northern_20100820	0	start	H1_2_3_20100820_1459.avi	3275	1.82126				0
H1_2_4_Northern_20100820	0	start	H1_2_4_20100820_1503.avi	3959	2.20164				0
H2_1_1_Central_20100805	0	set	H2_1_1_20100805_1221.avi	4271	2.37515	H2_1_1_20100805_1221.avi	58260	32.39897	1
H2_1_2_Central_20100805	0	set	H2_1_2_20100805_1228.avi	4311	2.39739	H2_1_2_20100805_1228.avi	58959	32.78769	1
H2_1_3_Central_20100805	0	start	H2_1_3_20100805_1317.avi	5289	2.94127				0
H2_1_4_Central_20100805	0	start	H2_1_4_20100805_1237.avi	3330	1.85185				0
H2_2_1_Central_20100805	0	set	H2_2_1_20100805_1406.avi	3892	2.16438	H2_2_1_20100805_1406.avi	58231	32.38284	1
H2_2_2_Central_20100805	0	set	H2_2_2_20100805_1412.avi	4268	2.37348	H2_2_2_20100805_1412.avi	58847	32.72541	1
H2_2_3_Central_20100805	0	start	H2_2_3_20100805_1417.avi	3651	2.03036				0
H2_2_4_Central_20100805	0	start	H2_2_4_20100805_1421.avi	2998	1.66722				0
H4_1_1_SplitBommie_20100713	0	set	H4_1_1_20100713_1306.avi	4504	2.50472	H4_1_1_20100713_1306.avi	59499	33.08799	1
H4_1_2_SplitBommie_20100713	0	set	H4_1_2_20100713_1313.avi	4769	2.65209	H4_1_2_20100713_1313.avi	58876	32.74153	1
H4_1_3_SplitBommie_20100713	0	start	H4_1_3_20100713_1319.avi	2873	1.59770				0
H4_1_4_SplitBommie_20100713	0	start	H4_1_4_20100713_1324.avi	4737	2.63429				0
H4_2_1_SplitBommie_20100726	0	set	H4_2_1_20100726_1237.avi	19880	11.05547	H4_2_1_20100726_1237.avi	74060	41.18551	1
H4_2_2_SplitBommie_20100726	0	set	H4_2_2_20100726_1254.avi	4321	2.40295	H4_2_2_20100726_1254.avi	60890	33.86154	1
H4_2_3_SplitBommie_20100726	0	start	H4_2_3_20100726_1300.avi	4698	2.61260				0
H4_2_4_SplitBommie_20100726	0	start	H4_2_4_20100726_1309.avi	5308	2.95183				0
O1_1_1_Bullocky_20100817	0	set	O1_1_1_20100817_1259.avi	4164	2.31564	O1_1_1_20100817_1259.avi	59193	32.91782	1
O1_1_2_Bullocky_20100817	0	set	O1_1_2_20100817_1305.avi	6175	3.43398	O1_1_2_20100817_1305.avi	60990	33.91715	1
O1_1_3_Bullocky_20100817	0	start	O1_1_3_20100817_1312.avi	4078	2.26782				0
O1_1_4_Bullocky_20100817	0	start	O1_1_4_20100817_1318.avi	4034	2.24335				0
O1_2_1_Bullocky_20100824	0	set	O1_2_1_20100824_1230.avi	4880	2.71382	O1_2_1_20100824_1230.avi	58848	32.72596	1
O1_2_2_Bullocky_20100824	0	set	O1_2_2_20100824_1235.avi	3872	2.15326	O1_2_2_20100824_1235.avi	57625	32.04584	1
O1_2_3_Bullocky_20100824	0	start	O1_2_3_20100824_1242.avi	3032	1.68613				0
O1_2_4_Bullocky_20100824	0	start	O1_2_4_20100824_1247.avi	6101	3.39283				0
O2_1_1_Patch_20100827	0	set	O2_1_1_20100827_1227.avi	4564	2.53809	O2_1_1_20100827_1227.avi	58535	32.55190	1
O2_1_2_Patch_20100827	0	set	O2_1_2_20100827_1234.avi	4423	2.45967	O2_1_2_20100827_1234.avi	68008	37.81993	1
O2_1_3_Patch_20100827	0	start	O2_1_3_20100827_1238.avi	3434	1.90968				0
O2_1_4_Patch_20100827	0	start	O2_1_4_20100827_1244.avi	3916	2.17773				0
O2_2_1_Patch_20100827	0	set	O2_2_1_20100827_1407.avi	4046	2.25002	O2_2_1_20100827_1407.avi	58007	32.25827	1
O2_2_2_Patch_20100827	0	set	O2_2_2_20100827_1413.avi	4063	2.25947	O2_2_2_20100827_1413.avi	69612	38.71193	1
O2_2_3_Patch_20100827	0	start	O2_2_3_20100827_1417.avi	5929	3.29718				0
O2_2_4_Patch_20100827	0	start	O2_2_4_20100827_1423.avi	5122	2.84840				0
S1_1_1_Northern_20100820	0	set	S1_1_1_20100820_1236.avi	3037	1.68891	S1_1_1_20100820_1236.avi	59922	33.32322	1
S1_1_2_Northern_20100820	0	set	S1_1_2_20100820_1259.avi	2866	1.59381	S1_1_2_20100820_1259.avi	57588	32.02526	1
S1_1_3_Northern_20100820	0	start	S1_1_3_20100820_1252.avi	6943	3.86107				0
S1_1_4_Northern_20100820	0	start	S1_1_4_20100820_1249.avi	2859	1.58992				0
S1_2_1_Northern_20100820	0	start of set	S1_2_1_20100820_1127.avi	4676	2.60037	S1_2_1_20100820_1127.avi	59087	32.85887	1
S1_2_2_Northern_20100820	0	set	S1_2_2_20100820_1133.avi	3148	1.75063	S1_2_2_20100820_1133.avi	59852	33.28430	1
S1_2_3_Northern_20100820	0	start	S1_2_3_20100820_1137.avi	3151	1.75230				0
S1_2_4_Northern_20100820 	0	start	S1_2_4_20100820_1142.avi	3034	1.68724				0
S3_1_1_Butterfly_20100805	0	set	S3_1_1_20100805_1105.avi	5905	3.28383	S3_1_1_20100805_1105.avi	62752	34.89701	1
S3_1_2_Butterfly_20100805	0	set	S3_1_2_20100805_1113.avi	3235	1.79902	S3_1_2_20100805_1113.avi	57624	32.04528	1
S3_1_3_Butterfly_20100805	0	start	S3_1_3_20100805_1118.avi	3274	1.82070				0
S3_1_4_Butterfly_20100805	0	start	S3_1_4_20100805_1123.avi	3686	2.04982				0
S3_2_1_Butterfly_20100816	0	set	S3_2_1_20100816_1111.avi	15524	8.63305	S3_2_1_20100816_1111.avi	70081	38.97274	1
S3_2_2_Butterfly_20100816	0	SET	S3_2_2_20100816_1216.avi	4133	2.29840	S3_2_2_20100816_1216.avi	58562	32.56691	1
S3_2_3_Butterfly_20100816	0	start	S3_2_3_20100816_1128.avi	14818	8.24044				0
S3_2_4_Butterfly_20100816	0	start	S3_2_4_20100816_1134.avi	3658	2.03425				0
S4_1_1_40Acres_20100713	0	set	S4_1_1_20100713_1042.avi	6859	3.81436	S4_1_1_20100713_1042.avi	61417	34.15461	1
S4_1_2_40Acres_20100713	0	set	S4_1_2_20100713_1050.avi	2894	1.60938	S4_1_2_20100713_1050.avi	57496	31.97410	1
S4_1_3_40Acres_20100713	0	start of set	S4_1_3_20100713_1055.avi	3916	-1.00000	S4_1_3_20100713_1055.avi	58359	-1.00000	1
S4_1_4_40Acres_20100713	0	set	S4_1_4_20100713_1103.avi	3941	-1.00000	S4_1_4_20100713_1103.avi	58799	-1.00000	1
S4_2_1_40Acres_20100726	0	set	S4_2_1_20100726_1052.avi	6813	3.78878	S4_2_1_20100726_1052.avi	63926	35.54989	1
S4_2_2_40Acres_20100726	0	set	S4_2_2_20100726_1102.avi	6674	3.71148	S4_2_2_20100726_1102.avi	61418	34.15516	1
S4_2_3_40Acres_20100726	0	set	S4_2_3_20100713_1204.avi	5452	-1.00000	S4_2_3_20100713_1204.avi	59955	-1.00000	1
S4_2_4_40Acres_20100726	0	set	S4_2_4_20100713_1212.avi	5351	-1.00000	S4_2_4_20100713_1212.avi	57821	-1.00000	1
